<?xml version="1.0" encoding="utf-8"?>
<!-- Generator: Adobe Illustrator 18.0.0, SVG Export Plug-In . SVG Version: 6.00 Build 0)  -->
<!DOCTYPE svg PUBLIC "-//W3C//DTD SVG 1.1//EN" "http://www.w3.org/Graphics/SVG/1.1/DTD/svg11.dtd">
<svg version="1.1" id="Layer_1" xmlns="http://www.w3.org/2000/svg" xmlns:xlink="http://www.w3.org/1999/xlink" x="0px" y="0px"
	 viewBox="0 0 40 60.9" enable-background="new 0 0 40 60.9" xml:space="preserve">
<line fill="none" stroke="#803637" stroke-width="1.8" stroke-miterlimit="10" x1="44.6" y1="-69.6" x2="-2" y2="-9.5"/>
<line fill="none" stroke="#803637" stroke-width="1.8" stroke-miterlimit="10" x1="44" y1="-38.3" x2="-2.6" y2="21.8"/>
<line fill="none" stroke="#803637" stroke-width="7.2" stroke-miterlimit="10" x1="44.3" y1="-53.9" x2="-2.3" y2="6.1"/>
<line fill="none" stroke="#803637" stroke-width="7.2" stroke-miterlimit="10" x1="43.7" y1="-22.7" x2="-2.9" y2="37.4"/>
<line fill="none" stroke="#803637" stroke-width="1.8" stroke-miterlimit="10" x1="43.5" y1="-7" x2="-3.1" y2="53"/>
<line fill="none" stroke="#803637" stroke-width="7.2" stroke-miterlimit="10" x1="43.2" y1="8.6" x2="-3.4" y2="68.7"/>
<line fill="none" stroke="#803637" stroke-width="1.8" stroke-miterlimit="10" x1="42.9" y1="24.3" x2="-3.7" y2="84.3"/>
<line fill="none" stroke="#803637" stroke-width="7.2" stroke-miterlimit="10" x1="42.6" y1="39.9" x2="-4" y2="100"/>
<line fill="none" stroke="#803637" stroke-width="1.8" stroke-miterlimit="10" x1="42.3" y1="55.6" x2="-4.3" y2="115.6"/>
<line fill="none" stroke="#803637" stroke-width="7.2" stroke-miterlimit="10" x1="42.4" y1="71.1" x2="-3.8" y2="131.4"/>
</svg>
