<?xml version="1.0" encoding="utf-8"?>
<!-- Generator: Adobe Illustrator 18.0.0, SVG Export Plug-In . SVG Version: 6.00 Build 0)  -->
<!DOCTYPE svg PUBLIC "-//W3C//DTD SVG 1.1//EN" "http://www.w3.org/Graphics/SVG/1.1/DTD/svg11.dtd">
<svg version="1.1" id="Layer_1" xmlns="http://www.w3.org/2000/svg" xmlns:xlink="http://www.w3.org/1999/xlink" x="0px" y="0px"
	 viewBox="0 0 1280 288" enable-background="new 0 0 1280 288" xml:space="preserve">
<font horiz-adv-x="1000">
<!-- Copyright (C) 2001, 2008 Hoefler &amp; Frere-Jones. http://www.typography.com -->
<!-- Copyright: Copyright 2014 Adobe System Incorporated. All rights reserved. -->
<font-face font-family="Gotham-Book" units-per-em="1000" underline-position="-100" underline-thickness="50"/>
<missing-glyph horiz-adv-x="500" d="M0,-200l500,0l0,1000l-500,0M71,750l358,0l-179,-390M50,-76l0,752l172,-376M450,676l0,-752l-172,376M250,240l179,-390l-358,0z"/>
<glyph unicode="X" horiz-adv-x="725" d="M577,700l-214,-288l-214,288l-93,0l258,-343l-268,-357l91,0l224,302l224,-302l94,0l-268,357l258,343z"/>
</font>

	<g>
	<g>
		
			<line fill="none" stroke="#FFFFFF" stroke-width="1.1227" stroke-miterlimit="10" stroke-dasharray="2.0209,4.0418" x1="15.7" y1="276.6" x2="1265.5" y2="276.6"/>
		
			<line fill="none" stroke="#FFFFFF" stroke-width="1.1226" stroke-miterlimit="10" stroke-dasharray="2.0207,4.0413" x1="15.7" y1="10.1" x2="1265.3" y2="10.1"/>
		<line fill="none" stroke="#FFFFFF" stroke-miterlimit="10" stroke-dasharray="1.8,3.6" x1="10" y1="268.9" x2="10" y2="15.9"/>
		
			<line fill="none" stroke="#FFFFFF" stroke-miterlimit="10" stroke-dasharray="1.8,3.6" x1="1270.1" y1="268.9" x2="1270.1" y2="15.9"/>
	</g>
	<g>
		
			<text transform="matrix(0.9896 0 0 1 6.4512 13.7715)" fill="#FFFFFF" font-family="'Gotham-Book'" font-size="10.1089" letter-spacing="-1">X</text>
		
			<text transform="matrix(-1 0 0 1 13.2432 279.8418)" fill="#FFFFFF" font-family="'Gotham-Book'" font-size="10.0035" letter-spacing="-1">X</text>
		
			<text transform="matrix(0.9896 0 0 1 1266.7993 13.7715)" fill="#FFFFFF" font-family="'Gotham-Book'" font-size="10.1089" letter-spacing="-1">X</text>
		
			<text transform="matrix(-1 0 0 1 1273.5908 279.8418)" fill="#FFFFFF" font-family="'Gotham-Book'" font-size="10.0035" letter-spacing="-1">X</text>
	</g>
</g>
</svg>
