<?xml version="1.0" encoding="utf-8"?>
<!-- Generator: Adobe Illustrator 18.0.0, SVG Export Plug-In . SVG Version: 6.00 Build 0)  -->
<!DOCTYPE svg PUBLIC "-//W3C//DTD SVG 1.1//EN" "http://www.w3.org/Graphics/SVG/1.1/DTD/svg11.dtd">
<svg version="1.1" id="Layer_1" xmlns="http://www.w3.org/2000/svg" xmlns:xlink="http://www.w3.org/1999/xlink" x="0px" y="0px"
	 viewBox="0 0 300 30" enable-background="new 0 0 300 30" xml:space="preserve">
<rect x="19" y="1.5" fill="none" stroke="#AA8135" stroke-miterlimit="10" width="263.4" height="28"/>
<circle fill="none" stroke="#AA8135" stroke-width="0.8332" stroke-miterlimit="10" cx="291.6" cy="15.3" r="2.3"/>
<circle fill="none" stroke="#AA8135" stroke-width="0.8332" stroke-miterlimit="10" cx="9.6" cy="15.3" r="2.3"/>
</svg>
