<?xml version="1.0" encoding="utf-8"?>
<!-- Generator: Adobe Illustrator 18.0.0, SVG Export Plug-In . SVG Version: 6.00 Build 0)  -->
<!DOCTYPE svg PUBLIC "-//W3C//DTD SVG 1.1//EN" "http://www.w3.org/Graphics/SVG/1.1/DTD/svg11.dtd">
<svg version="1.1" id="Layer_1" xmlns="http://www.w3.org/2000/svg" xmlns:xlink="http://www.w3.org/1999/xlink" x="0px" y="0px"
	 viewBox="0 0 512 576" enable-background="new 0 0 512 576" xml:space="preserve">
<g>
	<g>
		<g>
			<path fill="none" stroke="#A4854C" stroke-width="0.9919" stroke-miterlimit="10" d="M104.7,28.1c0,1.4,1.1,2.6,2.6,2.6
				c1.4,0,2.6-1.1,2.6-2.6c0-1.4-1.1-2.6-2.6-2.6C105.9,25.6,104.7,26.7,104.7,28.1z"/>
			<circle fill="none" stroke="#A4854C" stroke-width="0.9919" stroke-miterlimit="10" cx="107.3" cy="548.1" r="2.6"/>
		</g>
		<g>
			<path fill="none" stroke="#A4854C" stroke-miterlimit="10" d="M93.6,26.1H26.9c0,0,0,64.1,0,146.3c0,0,0,8.8,0,22.2V389
				c0,89.2,0,161.2,0,161.2h66.6"/>
			<path fill="none" stroke="#A4854C" stroke-miterlimit="10" d="M93.6,30.2H31c0,0,0,57.7,0,133.5c0,0,0,14.3,0,35.3v252
				c0,56,0,95.1,0,95.1h62.5"/>
		</g>
	</g>
	<g>
		<g>
			<path fill="none" stroke="#A4854C" stroke-width="0.9919" stroke-miterlimit="10" d="M410.7,28.1c0,1.4-1.1,2.6-2.6,2.6
				c-1.4,0-2.6-1.1-2.6-2.6c0-1.4,1.1-2.6,2.6-2.6C409.6,25.6,410.7,26.7,410.7,28.1z"/>
			<circle fill="none" stroke="#A4854C" stroke-width="0.9919" stroke-miterlimit="10" cx="408.2" cy="548.1" r="2.6"/>
		</g>
		<g>
			<path fill="none" stroke="#A4854C" stroke-miterlimit="10" d="M421.8,550.2h66.6c0,0,0-56.3,0-131.1c0,0,0-5.4,0-14.5V150
				c0-71.2,0-123.9,0-123.9h-66.6"/>
			<path fill="none" stroke="#A4854C" stroke-miterlimit="10" d="M421.8,30.2h62.5c0,0,0,50.1,0,118.3v293c0,61.1,0,104.6,0,104.6
				h-62.5"/>
		</g>
	</g>
</g>
</svg>
