<?xml version="1.0" encoding="utf-8"?>
<!-- Generator: Adobe Illustrator 18.0.0, SVG Export Plug-In . SVG Version: 6.00 Build 0)  -->
<!DOCTYPE svg PUBLIC "-//W3C//DTD SVG 1.1//EN" "http://www.w3.org/Graphics/SVG/1.1/DTD/svg11.dtd">
<svg version="1.1" id="Layer_1" xmlns="http://www.w3.org/2000/svg" xmlns:xlink="http://www.w3.org/1999/xlink" x="0px" y="0px"
	 viewBox="0 0 640 288" enable-background="new 0 0 640 288" xml:space="preserve">
<g>
	<line fill="none" stroke="#A2A1A2" stroke-miterlimit="10" x1="25.9" y1="12.2" x2="25.9" y2="18.3"/>
	<line fill="none" stroke="#A2A1A2" stroke-miterlimit="10" x1="32.2" y1="12.2" x2="32.2" y2="18.3"/>
	<line fill="none" stroke="#A2A1A2" stroke-miterlimit="10" x1="19.7" y1="12.2" x2="19.7" y2="18.3"/>
	<line fill="none" stroke="#A2A1A2" stroke-miterlimit="10" x1="38.4" y1="12.2" x2="38.4" y2="18.3"/>
	<line fill="none" stroke="#A2A1A2" stroke-miterlimit="10" x1="44.6" y1="12.2" x2="44.6" y2="18.3"/>
	<line fill="none" stroke="#A2A1A2" stroke-miterlimit="10" x1="50.8" y1="12.2" x2="50.8" y2="18.3"/>
	<line fill="none" stroke="#A2A1A2" stroke-miterlimit="10" x1="57" y1="12.2" x2="57" y2="18.3"/>
	<line fill="none" stroke="#A2A1A2" stroke-miterlimit="10" x1="63.2" y1="12.2" x2="63.2" y2="18.3"/>
	<line fill="none" stroke="#A2A1A2" stroke-miterlimit="10" x1="69.4" y1="12.2" x2="69.4" y2="18.3"/>
	<line fill="none" stroke="#A2A1A2" stroke-miterlimit="10" x1="75.6" y1="12.2" x2="75.6" y2="18.3"/>
	<line fill="none" stroke="#A2A1A2" stroke-miterlimit="10" x1="81.9" y1="12.2" x2="81.9" y2="18.3"/>
	<line fill="none" stroke="#A2A1A2" stroke-miterlimit="10" x1="88.1" y1="12.2" x2="88.1" y2="18.3"/>
	<line fill="none" stroke="#A2A1A2" stroke-miterlimit="10" x1="94.3" y1="12.2" x2="94.3" y2="18.3"/>
	<line fill="none" stroke="#A2A1A2" stroke-miterlimit="10" x1="100.5" y1="12.2" x2="100.5" y2="18.3"/>
	<line fill="none" stroke="#A2A1A2" stroke-miterlimit="10" x1="106.7" y1="12.2" x2="106.7" y2="18.3"/>
	<line fill="none" stroke="#A2A1A2" stroke-miterlimit="10" x1="112.9" y1="12.2" x2="112.9" y2="18.3"/>
	<line fill="none" stroke="#A2A1A2" stroke-miterlimit="10" x1="119.1" y1="12.2" x2="119.1" y2="18.3"/>
	<line fill="none" stroke="#A2A1A2" stroke-miterlimit="10" x1="125.3" y1="12.2" x2="125.3" y2="18.3"/>
	<line fill="none" stroke="#A2A1A2" stroke-miterlimit="10" x1="131.5" y1="12.2" x2="131.5" y2="18.3"/>
	<line fill="none" stroke="#A2A1A2" stroke-miterlimit="10" x1="137.8" y1="12.2" x2="137.8" y2="18.3"/>
	<line fill="none" stroke="#A2A1A2" stroke-miterlimit="10" x1="144" y1="12.2" x2="144" y2="18.3"/>
	<line fill="none" stroke="#A2A1A2" stroke-miterlimit="10" x1="150.2" y1="12.2" x2="150.2" y2="18.3"/>
	<line fill="none" stroke="#A2A1A2" stroke-miterlimit="10" x1="156.4" y1="12.2" x2="156.4" y2="18.3"/>
	<line fill="none" stroke="#A2A1A2" stroke-miterlimit="10" x1="162.6" y1="12.2" x2="162.6" y2="18.3"/>
	<line fill="none" stroke="#A2A1A2" stroke-miterlimit="10" x1="168.8" y1="12.2" x2="168.8" y2="18.3"/>
	<line fill="none" stroke="#A2A1A2" stroke-miterlimit="10" x1="175" y1="12.2" x2="175" y2="18.3"/>
	<line fill="none" stroke="#A2A1A2" stroke-miterlimit="10" x1="181.2" y1="12.2" x2="181.2" y2="18.3"/>
	<line fill="none" stroke="#A2A1A2" stroke-miterlimit="10" x1="187.5" y1="12.2" x2="187.5" y2="18.3"/>
	<line fill="none" stroke="#A2A1A2" stroke-miterlimit="10" x1="193.7" y1="12.2" x2="193.7" y2="18.3"/>
	<line fill="none" stroke="#A2A1A2" stroke-miterlimit="10" x1="199.9" y1="12.2" x2="199.9" y2="18.3"/>
	<line fill="none" stroke="#A2A1A2" stroke-miterlimit="10" x1="206.1" y1="12.2" x2="206.1" y2="18.3"/>
	<line fill="none" stroke="#A2A1A2" stroke-miterlimit="10" x1="212.3" y1="12.2" x2="212.3" y2="18.3"/>
	<line fill="none" stroke="#A2A1A2" stroke-miterlimit="10" x1="218.5" y1="12.2" x2="218.5" y2="18.3"/>
	<line fill="none" stroke="#A2A1A2" stroke-miterlimit="10" x1="224.7" y1="12.2" x2="224.7" y2="18.3"/>
	<line fill="none" stroke="#A2A1A2" stroke-miterlimit="10" x1="230.9" y1="12.2" x2="230.9" y2="18.3"/>
	<line fill="none" stroke="#A2A1A2" stroke-miterlimit="10" x1="237.2" y1="12.2" x2="237.2" y2="18.3"/>
	<line fill="none" stroke="#A2A1A2" stroke-miterlimit="10" x1="243.4" y1="12.2" x2="243.4" y2="18.3"/>
	<line fill="none" stroke="#A2A1A2" stroke-miterlimit="10" x1="249.6" y1="12.2" x2="249.6" y2="18.3"/>
	<line fill="none" stroke="#A2A1A2" stroke-miterlimit="10" x1="255.8" y1="12.2" x2="255.8" y2="18.3"/>
	<line fill="none" stroke="#A2A1A2" stroke-miterlimit="10" x1="262" y1="12.2" x2="262" y2="18.3"/>
	<line fill="none" stroke="#A2A1A2" stroke-miterlimit="10" x1="268.2" y1="12.2" x2="268.2" y2="18.3"/>
	<line fill="none" stroke="#A2A1A2" stroke-miterlimit="10" x1="274.4" y1="12.2" x2="274.4" y2="18.3"/>
	<line fill="none" stroke="#A2A1A2" stroke-miterlimit="10" x1="280.6" y1="12.2" x2="280.6" y2="18.3"/>
	<line fill="none" stroke="#A2A1A2" stroke-miterlimit="10" x1="286.9" y1="12.2" x2="286.9" y2="18.3"/>
	<line fill="none" stroke="#A2A1A2" stroke-miterlimit="10" x1="293.1" y1="12.2" x2="293.1" y2="18.3"/>
	<line fill="none" stroke="#A2A1A2" stroke-miterlimit="10" x1="299.3" y1="12.2" x2="299.3" y2="18.3"/>
	<line fill="none" stroke="#A2A1A2" stroke-miterlimit="10" x1="305.5" y1="12.2" x2="305.5" y2="18.3"/>
	<line fill="none" stroke="#A2A1A2" stroke-miterlimit="10" x1="311.7" y1="12.2" x2="311.7" y2="18.3"/>
	<line fill="none" stroke="#A2A1A2" stroke-miterlimit="10" x1="317.9" y1="12.2" x2="317.9" y2="18.3"/>
	<line fill="none" stroke="#A2A1A2" stroke-miterlimit="10" x1="324.1" y1="12.2" x2="324.1" y2="18.3"/>
	<line fill="none" stroke="#A2A1A2" stroke-miterlimit="10" x1="330.3" y1="12.2" x2="330.3" y2="18.3"/>
	<line fill="none" stroke="#A2A1A2" stroke-miterlimit="10" x1="336.6" y1="12.2" x2="336.6" y2="18.3"/>
	<line fill="none" stroke="#A2A1A2" stroke-miterlimit="10" x1="342.8" y1="12.2" x2="342.8" y2="18.3"/>
	<line fill="none" stroke="#A2A1A2" stroke-miterlimit="10" x1="349" y1="12.2" x2="349" y2="18.3"/>
	<line fill="none" stroke="#A2A1A2" stroke-miterlimit="10" x1="355.2" y1="12.2" x2="355.2" y2="18.3"/>
	<line fill="none" stroke="#A2A1A2" stroke-miterlimit="10" x1="361.4" y1="12.2" x2="361.4" y2="18.3"/>
	<line fill="none" stroke="#A2A1A2" stroke-miterlimit="10" x1="367.6" y1="12.2" x2="367.6" y2="18.3"/>
	<line fill="none" stroke="#A2A1A2" stroke-miterlimit="10" x1="373.8" y1="12.2" x2="373.8" y2="18.3"/>
	<line fill="none" stroke="#A2A1A2" stroke-miterlimit="10" x1="380" y1="12.2" x2="380" y2="18.3"/>
	<line fill="none" stroke="#A2A1A2" stroke-miterlimit="10" x1="386.2" y1="12.2" x2="386.2" y2="18.3"/>
	<line fill="none" stroke="#A2A1A2" stroke-miterlimit="10" x1="392.5" y1="12.2" x2="392.5" y2="18.3"/>
	<line fill="none" stroke="#A2A1A2" stroke-miterlimit="10" x1="398.7" y1="12.2" x2="398.7" y2="18.3"/>
	<line fill="none" stroke="#A2A1A2" stroke-miterlimit="10" x1="404.9" y1="12.2" x2="404.9" y2="18.3"/>
	<line fill="none" stroke="#A2A1A2" stroke-miterlimit="10" x1="411.1" y1="12.2" x2="411.1" y2="18.3"/>
	<line fill="none" stroke="#A2A1A2" stroke-miterlimit="10" x1="417.3" y1="12.2" x2="417.3" y2="18.3"/>
	<line fill="none" stroke="#A2A1A2" stroke-miterlimit="10" x1="423.5" y1="12.2" x2="423.5" y2="18.3"/>
	<line fill="none" stroke="#A2A1A2" stroke-miterlimit="10" x1="429.7" y1="12.2" x2="429.7" y2="18.3"/>
	<line fill="none" stroke="#A2A1A2" stroke-miterlimit="10" x1="435.9" y1="12.2" x2="435.9" y2="18.3"/>
	<line fill="none" stroke="#A2A1A2" stroke-miterlimit="10" x1="442.2" y1="12.2" x2="442.2" y2="18.3"/>
	<line fill="none" stroke="#A2A1A2" stroke-miterlimit="10" x1="448.4" y1="12.2" x2="448.4" y2="18.3"/>
	<line fill="none" stroke="#A2A1A2" stroke-miterlimit="10" x1="454.6" y1="12.2" x2="454.6" y2="18.3"/>
	<line fill="none" stroke="#A2A1A2" stroke-miterlimit="10" x1="460.8" y1="12.2" x2="460.8" y2="18.3"/>
	<line fill="none" stroke="#A2A1A2" stroke-miterlimit="10" x1="467" y1="12.2" x2="467" y2="18.3"/>
	<line fill="none" stroke="#A2A1A2" stroke-miterlimit="10" x1="473.2" y1="12.2" x2="473.2" y2="18.3"/>
	<line fill="none" stroke="#A2A1A2" stroke-miterlimit="10" x1="479.4" y1="12.2" x2="479.4" y2="18.3"/>
	<line fill="none" stroke="#A2A1A2" stroke-miterlimit="10" x1="485.6" y1="12.2" x2="485.6" y2="18.3"/>
	<line fill="none" stroke="#A2A1A2" stroke-miterlimit="10" x1="491.9" y1="12.2" x2="491.9" y2="18.3"/>
	<line fill="none" stroke="#A2A1A2" stroke-miterlimit="10" x1="498.1" y1="12.2" x2="498.1" y2="18.3"/>
	<line fill="none" stroke="#A2A1A2" stroke-miterlimit="10" x1="504.3" y1="12.2" x2="504.3" y2="18.3"/>
	<line fill="none" stroke="#A2A1A2" stroke-miterlimit="10" x1="510.5" y1="12.2" x2="510.5" y2="18.3"/>
	<line fill="none" stroke="#A2A1A2" stroke-miterlimit="10" x1="516.7" y1="12.2" x2="516.7" y2="18.3"/>
	<line fill="none" stroke="#A2A1A2" stroke-miterlimit="10" x1="522.9" y1="12.2" x2="522.9" y2="18.3"/>
	<line fill="none" stroke="#A2A1A2" stroke-miterlimit="10" x1="529.1" y1="12.2" x2="529.1" y2="18.3"/>
	<line fill="none" stroke="#A2A1A2" stroke-miterlimit="10" x1="535.3" y1="12.2" x2="535.3" y2="18.3"/>
	<line fill="none" stroke="#A2A1A2" stroke-miterlimit="10" x1="541.6" y1="12.2" x2="541.6" y2="18.3"/>
	<line fill="none" stroke="#A2A1A2" stroke-miterlimit="10" x1="547.8" y1="12.2" x2="547.8" y2="18.3"/>
	<line fill="none" stroke="#A2A1A2" stroke-miterlimit="10" x1="554" y1="12.2" x2="554" y2="18.3"/>
	<line fill="none" stroke="#A2A1A2" stroke-miterlimit="10" x1="560.2" y1="12.2" x2="560.2" y2="18.3"/>
	<line fill="none" stroke="#A2A1A2" stroke-miterlimit="10" x1="566.4" y1="12.2" x2="566.4" y2="18.3"/>
	<line fill="none" stroke="#A2A1A2" stroke-miterlimit="10" x1="572.6" y1="12.2" x2="572.6" y2="18.3"/>
	<line fill="none" stroke="#A2A1A2" stroke-miterlimit="10" x1="578.8" y1="12.2" x2="578.8" y2="18.3"/>
	<line fill="none" stroke="#A2A1A2" stroke-miterlimit="10" x1="585" y1="12.2" x2="585" y2="18.3"/>
	<line fill="none" stroke="#A2A1A2" stroke-miterlimit="10" x1="591.3" y1="12.2" x2="591.3" y2="18.3"/>
	<line fill="none" stroke="#A2A1A2" stroke-miterlimit="10" x1="597.5" y1="12.2" x2="597.5" y2="18.3"/>
	<line fill="none" stroke="#A2A1A2" stroke-miterlimit="10" x1="603.7" y1="12.2" x2="603.7" y2="18.3"/>
	<line fill="none" stroke="#A2A1A2" stroke-miterlimit="10" x1="609.9" y1="12.2" x2="609.9" y2="18.3"/>
	<line fill="none" stroke="#A2A1A2" stroke-miterlimit="10" x1="616.1" y1="12.2" x2="616.1" y2="18.3"/>
	<line fill="none" stroke="#A2A1A2" stroke-miterlimit="10" x1="622.3" y1="12.2" x2="622.3" y2="18.3"/>
</g>
<g>
	<line fill="none" stroke="#A2A1A2" stroke-miterlimit="10" x1="25.9" y1="269.2" x2="25.9" y2="275.3"/>
	<line fill="none" stroke="#A2A1A2" stroke-miterlimit="10" x1="32.2" y1="269.2" x2="32.2" y2="275.3"/>
	<line fill="none" stroke="#A2A1A2" stroke-miterlimit="10" x1="19.7" y1="269.2" x2="19.7" y2="275.3"/>
	<line fill="none" stroke="#A2A1A2" stroke-miterlimit="10" x1="38.4" y1="269.2" x2="38.4" y2="275.3"/>
	<line fill="none" stroke="#A2A1A2" stroke-miterlimit="10" x1="44.6" y1="269.2" x2="44.6" y2="275.3"/>
	<line fill="none" stroke="#A2A1A2" stroke-miterlimit="10" x1="50.8" y1="269.2" x2="50.8" y2="275.3"/>
	<line fill="none" stroke="#A2A1A2" stroke-miterlimit="10" x1="57" y1="269.2" x2="57" y2="275.3"/>
	<line fill="none" stroke="#A2A1A2" stroke-miterlimit="10" x1="63.2" y1="269.2" x2="63.2" y2="275.3"/>
	<line fill="none" stroke="#A2A1A2" stroke-miterlimit="10" x1="69.4" y1="269.2" x2="69.4" y2="275.3"/>
	<line fill="none" stroke="#A2A1A2" stroke-miterlimit="10" x1="75.6" y1="269.2" x2="75.6" y2="275.3"/>
	<line fill="none" stroke="#A2A1A2" stroke-miterlimit="10" x1="81.9" y1="269.2" x2="81.9" y2="275.3"/>
	<line fill="none" stroke="#A2A1A2" stroke-miterlimit="10" x1="88.1" y1="269.2" x2="88.1" y2="275.3"/>
	<line fill="none" stroke="#A2A1A2" stroke-miterlimit="10" x1="94.3" y1="269.2" x2="94.3" y2="275.3"/>
	<line fill="none" stroke="#A2A1A2" stroke-miterlimit="10" x1="100.5" y1="269.2" x2="100.5" y2="275.3"/>
	<line fill="none" stroke="#A2A1A2" stroke-miterlimit="10" x1="106.7" y1="269.2" x2="106.7" y2="275.3"/>
	<line fill="none" stroke="#A2A1A2" stroke-miterlimit="10" x1="112.9" y1="269.2" x2="112.9" y2="275.3"/>
	<line fill="none" stroke="#A2A1A2" stroke-miterlimit="10" x1="119.1" y1="269.2" x2="119.1" y2="275.3"/>
	<line fill="none" stroke="#A2A1A2" stroke-miterlimit="10" x1="125.3" y1="269.2" x2="125.3" y2="275.3"/>
	<line fill="none" stroke="#A2A1A2" stroke-miterlimit="10" x1="131.5" y1="269.2" x2="131.5" y2="275.3"/>
	<line fill="none" stroke="#A2A1A2" stroke-miterlimit="10" x1="137.8" y1="269.2" x2="137.8" y2="275.3"/>
	<line fill="none" stroke="#A2A1A2" stroke-miterlimit="10" x1="144" y1="269.2" x2="144" y2="275.3"/>
	<line fill="none" stroke="#A2A1A2" stroke-miterlimit="10" x1="150.2" y1="269.2" x2="150.2" y2="275.3"/>
	<line fill="none" stroke="#A2A1A2" stroke-miterlimit="10" x1="156.4" y1="269.2" x2="156.4" y2="275.3"/>
	<line fill="none" stroke="#A2A1A2" stroke-miterlimit="10" x1="162.6" y1="269.2" x2="162.6" y2="275.3"/>
	<line fill="none" stroke="#A2A1A2" stroke-miterlimit="10" x1="168.8" y1="269.2" x2="168.8" y2="275.3"/>
	<line fill="none" stroke="#A2A1A2" stroke-miterlimit="10" x1="175" y1="269.2" x2="175" y2="275.3"/>
	<line fill="none" stroke="#A2A1A2" stroke-miterlimit="10" x1="181.2" y1="269.2" x2="181.2" y2="275.3"/>
	<line fill="none" stroke="#A2A1A2" stroke-miterlimit="10" x1="187.5" y1="269.2" x2="187.5" y2="275.3"/>
	<line fill="none" stroke="#A2A1A2" stroke-miterlimit="10" x1="193.7" y1="269.2" x2="193.7" y2="275.3"/>
	<line fill="none" stroke="#A2A1A2" stroke-miterlimit="10" x1="199.9" y1="269.2" x2="199.9" y2="275.3"/>
	<line fill="none" stroke="#A2A1A2" stroke-miterlimit="10" x1="206.1" y1="269.2" x2="206.1" y2="275.3"/>
	<line fill="none" stroke="#A2A1A2" stroke-miterlimit="10" x1="212.3" y1="269.2" x2="212.3" y2="275.3"/>
	<line fill="none" stroke="#A2A1A2" stroke-miterlimit="10" x1="218.5" y1="269.2" x2="218.5" y2="275.3"/>
	<line fill="none" stroke="#A2A1A2" stroke-miterlimit="10" x1="224.7" y1="269.2" x2="224.7" y2="275.3"/>
	<line fill="none" stroke="#A2A1A2" stroke-miterlimit="10" x1="230.9" y1="269.2" x2="230.9" y2="275.3"/>
	<line fill="none" stroke="#A2A1A2" stroke-miterlimit="10" x1="237.2" y1="269.2" x2="237.2" y2="275.3"/>
	<line fill="none" stroke="#A2A1A2" stroke-miterlimit="10" x1="243.4" y1="269.2" x2="243.4" y2="275.3"/>
	<line fill="none" stroke="#A2A1A2" stroke-miterlimit="10" x1="249.6" y1="269.2" x2="249.6" y2="275.3"/>
	<line fill="none" stroke="#A2A1A2" stroke-miterlimit="10" x1="255.8" y1="269.2" x2="255.8" y2="275.3"/>
	<line fill="none" stroke="#A2A1A2" stroke-miterlimit="10" x1="262" y1="269.2" x2="262" y2="275.3"/>
	<line fill="none" stroke="#A2A1A2" stroke-miterlimit="10" x1="268.2" y1="269.2" x2="268.2" y2="275.3"/>
	<line fill="none" stroke="#A2A1A2" stroke-miterlimit="10" x1="274.4" y1="269.2" x2="274.4" y2="275.3"/>
	<line fill="none" stroke="#A2A1A2" stroke-miterlimit="10" x1="280.6" y1="269.2" x2="280.6" y2="275.3"/>
	<line fill="none" stroke="#A2A1A2" stroke-miterlimit="10" x1="286.9" y1="269.2" x2="286.9" y2="275.3"/>
	<line fill="none" stroke="#A2A1A2" stroke-miterlimit="10" x1="293.1" y1="269.2" x2="293.1" y2="275.3"/>
	<line fill="none" stroke="#A2A1A2" stroke-miterlimit="10" x1="299.3" y1="269.2" x2="299.3" y2="275.3"/>
	<line fill="none" stroke="#A2A1A2" stroke-miterlimit="10" x1="305.5" y1="269.2" x2="305.5" y2="275.3"/>
	<line fill="none" stroke="#A2A1A2" stroke-miterlimit="10" x1="311.7" y1="269.2" x2="311.7" y2="275.3"/>
	<line fill="none" stroke="#A2A1A2" stroke-miterlimit="10" x1="317.9" y1="269.2" x2="317.9" y2="275.3"/>
	<line fill="none" stroke="#A2A1A2" stroke-miterlimit="10" x1="324.1" y1="269.2" x2="324.1" y2="275.3"/>
	<line fill="none" stroke="#A2A1A2" stroke-miterlimit="10" x1="330.3" y1="269.2" x2="330.3" y2="275.3"/>
	<line fill="none" stroke="#A2A1A2" stroke-miterlimit="10" x1="336.6" y1="269.2" x2="336.6" y2="275.3"/>
	<line fill="none" stroke="#A2A1A2" stroke-miterlimit="10" x1="342.8" y1="269.2" x2="342.8" y2="275.3"/>
	<line fill="none" stroke="#A2A1A2" stroke-miterlimit="10" x1="349" y1="269.2" x2="349" y2="275.3"/>
	<line fill="none" stroke="#A2A1A2" stroke-miterlimit="10" x1="355.2" y1="269.2" x2="355.2" y2="275.3"/>
	<line fill="none" stroke="#A2A1A2" stroke-miterlimit="10" x1="361.4" y1="269.2" x2="361.4" y2="275.3"/>
	<line fill="none" stroke="#A2A1A2" stroke-miterlimit="10" x1="367.6" y1="269.2" x2="367.6" y2="275.3"/>
	<line fill="none" stroke="#A2A1A2" stroke-miterlimit="10" x1="373.8" y1="269.2" x2="373.8" y2="275.3"/>
	<line fill="none" stroke="#A2A1A2" stroke-miterlimit="10" x1="380" y1="269.2" x2="380" y2="275.3"/>
	<line fill="none" stroke="#A2A1A2" stroke-miterlimit="10" x1="386.2" y1="269.2" x2="386.2" y2="275.3"/>
	<line fill="none" stroke="#A2A1A2" stroke-miterlimit="10" x1="392.5" y1="269.2" x2="392.5" y2="275.3"/>
	<line fill="none" stroke="#A2A1A2" stroke-miterlimit="10" x1="398.7" y1="269.2" x2="398.7" y2="275.3"/>
	<line fill="none" stroke="#A2A1A2" stroke-miterlimit="10" x1="404.9" y1="269.2" x2="404.9" y2="275.3"/>
	<line fill="none" stroke="#A2A1A2" stroke-miterlimit="10" x1="411.1" y1="269.2" x2="411.1" y2="275.3"/>
	<line fill="none" stroke="#A2A1A2" stroke-miterlimit="10" x1="417.3" y1="269.2" x2="417.3" y2="275.3"/>
	<line fill="none" stroke="#A2A1A2" stroke-miterlimit="10" x1="423.5" y1="269.2" x2="423.5" y2="275.3"/>
	<line fill="none" stroke="#A2A1A2" stroke-miterlimit="10" x1="429.7" y1="269.2" x2="429.7" y2="275.3"/>
	<line fill="none" stroke="#A2A1A2" stroke-miterlimit="10" x1="435.9" y1="269.2" x2="435.9" y2="275.3"/>
	<line fill="none" stroke="#A2A1A2" stroke-miterlimit="10" x1="442.2" y1="269.2" x2="442.2" y2="275.3"/>
	<line fill="none" stroke="#A2A1A2" stroke-miterlimit="10" x1="448.4" y1="269.2" x2="448.4" y2="275.3"/>
	<line fill="none" stroke="#A2A1A2" stroke-miterlimit="10" x1="454.6" y1="269.2" x2="454.6" y2="275.3"/>
	<line fill="none" stroke="#A2A1A2" stroke-miterlimit="10" x1="460.8" y1="269.2" x2="460.8" y2="275.3"/>
	<line fill="none" stroke="#A2A1A2" stroke-miterlimit="10" x1="467" y1="269.2" x2="467" y2="275.3"/>
	<line fill="none" stroke="#A2A1A2" stroke-miterlimit="10" x1="473.2" y1="269.2" x2="473.2" y2="275.3"/>
	<line fill="none" stroke="#A2A1A2" stroke-miterlimit="10" x1="479.4" y1="269.2" x2="479.4" y2="275.3"/>
	<line fill="none" stroke="#A2A1A2" stroke-miterlimit="10" x1="485.6" y1="269.2" x2="485.6" y2="275.3"/>
	<line fill="none" stroke="#A2A1A2" stroke-miterlimit="10" x1="491.9" y1="269.2" x2="491.9" y2="275.3"/>
	<line fill="none" stroke="#A2A1A2" stroke-miterlimit="10" x1="498.1" y1="269.2" x2="498.1" y2="275.3"/>
	<line fill="none" stroke="#A2A1A2" stroke-miterlimit="10" x1="504.3" y1="269.2" x2="504.3" y2="275.3"/>
	<line fill="none" stroke="#A2A1A2" stroke-miterlimit="10" x1="510.5" y1="269.2" x2="510.5" y2="275.3"/>
	<line fill="none" stroke="#A2A1A2" stroke-miterlimit="10" x1="516.7" y1="269.2" x2="516.7" y2="275.3"/>
	<line fill="none" stroke="#A2A1A2" stroke-miterlimit="10" x1="522.9" y1="269.2" x2="522.9" y2="275.3"/>
	<line fill="none" stroke="#A2A1A2" stroke-miterlimit="10" x1="529.1" y1="269.2" x2="529.1" y2="275.3"/>
	<line fill="none" stroke="#A2A1A2" stroke-miterlimit="10" x1="535.3" y1="269.2" x2="535.3" y2="275.3"/>
	<line fill="none" stroke="#A2A1A2" stroke-miterlimit="10" x1="541.6" y1="269.2" x2="541.6" y2="275.3"/>
	<line fill="none" stroke="#A2A1A2" stroke-miterlimit="10" x1="547.8" y1="269.2" x2="547.8" y2="275.3"/>
	<line fill="none" stroke="#A2A1A2" stroke-miterlimit="10" x1="554" y1="269.2" x2="554" y2="275.3"/>
	<line fill="none" stroke="#A2A1A2" stroke-miterlimit="10" x1="560.2" y1="269.2" x2="560.2" y2="275.3"/>
	<line fill="none" stroke="#A2A1A2" stroke-miterlimit="10" x1="566.4" y1="269.2" x2="566.4" y2="275.3"/>
	<line fill="none" stroke="#A2A1A2" stroke-miterlimit="10" x1="572.6" y1="269.2" x2="572.6" y2="275.3"/>
	<line fill="none" stroke="#A2A1A2" stroke-miterlimit="10" x1="578.8" y1="269.2" x2="578.8" y2="275.3"/>
	<line fill="none" stroke="#A2A1A2" stroke-miterlimit="10" x1="585" y1="269.2" x2="585" y2="275.3"/>
	<line fill="none" stroke="#A2A1A2" stroke-miterlimit="10" x1="591.3" y1="269.2" x2="591.3" y2="275.3"/>
	<line fill="none" stroke="#A2A1A2" stroke-miterlimit="10" x1="597.5" y1="269.2" x2="597.5" y2="275.3"/>
	<line fill="none" stroke="#A2A1A2" stroke-miterlimit="10" x1="603.7" y1="269.2" x2="603.7" y2="275.3"/>
	<line fill="none" stroke="#A2A1A2" stroke-miterlimit="10" x1="609.9" y1="269.2" x2="609.9" y2="275.3"/>
	<line fill="none" stroke="#A2A1A2" stroke-miterlimit="10" x1="616.1" y1="269.2" x2="616.1" y2="275.3"/>
	<line fill="none" stroke="#A2A1A2" stroke-miterlimit="10" x1="622.3" y1="269.2" x2="622.3" y2="275.3"/>
</g>
<g>
	<line fill="none" stroke="#A2A1A2" stroke-width="0.8815" stroke-miterlimit="10" x1="628.5" y1="18.4" x2="622.3" y2="18.4"/>
	<line fill="none" stroke="#A2A1A2" stroke-width="0.8815" stroke-miterlimit="10" x1="628.5" y1="24.7" x2="622.3" y2="24.7"/>
	<line fill="none" stroke="#A2A1A2" stroke-width="0.8815" stroke-miterlimit="10" x1="628.5" y1="31" x2="622.3" y2="31"/>
	<line fill="none" stroke="#A2A1A2" stroke-width="0.8815" stroke-miterlimit="10" x1="628.5" y1="37.2" x2="622.3" y2="37.2"/>
	<line fill="none" stroke="#A2A1A2" stroke-width="0.8815" stroke-miterlimit="10" x1="628.5" y1="43.5" x2="622.3" y2="43.5"/>
	<line fill="none" stroke="#A2A1A2" stroke-width="0.8815" stroke-miterlimit="10" x1="628.5" y1="49.8" x2="622.3" y2="49.8"/>
	<line fill="none" stroke="#A2A1A2" stroke-width="0.8815" stroke-miterlimit="10" x1="628.5" y1="56" x2="622.3" y2="56"/>
	<line fill="none" stroke="#A2A1A2" stroke-width="0.8815" stroke-miterlimit="10" x1="628.5" y1="62.3" x2="622.3" y2="62.3"/>
	<line fill="none" stroke="#A2A1A2" stroke-width="0.8815" stroke-miterlimit="10" x1="628.5" y1="68.6" x2="622.3" y2="68.6"/>
	<line fill="none" stroke="#A2A1A2" stroke-width="0.8815" stroke-miterlimit="10" x1="628.5" y1="74.8" x2="622.3" y2="74.8"/>
	<line fill="none" stroke="#A2A1A2" stroke-width="0.8815" stroke-miterlimit="10" x1="628.5" y1="81.1" x2="622.3" y2="81.1"/>
	<line fill="none" stroke="#A2A1A2" stroke-width="0.8815" stroke-miterlimit="10" x1="628.5" y1="87.4" x2="622.3" y2="87.4"/>
	<line fill="none" stroke="#A2A1A2" stroke-width="0.8815" stroke-miterlimit="10" x1="628.5" y1="93.6" x2="622.3" y2="93.6"/>
	<line fill="none" stroke="#A2A1A2" stroke-width="0.8815" stroke-miterlimit="10" x1="628.5" y1="99.9" x2="622.3" y2="99.9"/>
	<line fill="none" stroke="#A2A1A2" stroke-width="0.8815" stroke-miterlimit="10" x1="628.5" y1="106.2" x2="622.3" y2="106.2"/>
	<line fill="none" stroke="#A2A1A2" stroke-width="0.8815" stroke-miterlimit="10" x1="628.5" y1="112.5" x2="622.3" y2="112.5"/>
	<line fill="none" stroke="#A2A1A2" stroke-width="0.8815" stroke-miterlimit="10" x1="628.5" y1="118.7" x2="622.3" y2="118.7"/>
	<line fill="none" stroke="#A2A1A2" stroke-width="0.8815" stroke-miterlimit="10" x1="628.5" y1="125" x2="622.3" y2="125"/>
	<line fill="none" stroke="#A2A1A2" stroke-width="0.8815" stroke-miterlimit="10" x1="628.5" y1="131.3" x2="622.3" y2="131.3"/>
	<line fill="none" stroke="#A2A1A2" stroke-width="0.8815" stroke-miterlimit="10" x1="628.5" y1="137.5" x2="622.3" y2="137.5"/>
	<line fill="none" stroke="#A2A1A2" stroke-width="0.8815" stroke-miterlimit="10" x1="628.5" y1="143.8" x2="622.3" y2="143.8"/>
	<line fill="none" stroke="#A2A1A2" stroke-width="0.8815" stroke-miterlimit="10" x1="628.5" y1="150.1" x2="622.3" y2="150.1"/>
	<line fill="none" stroke="#A2A1A2" stroke-width="0.8815" stroke-miterlimit="10" x1="628.5" y1="156.3" x2="622.3" y2="156.3"/>
	<line fill="none" stroke="#A2A1A2" stroke-width="0.8815" stroke-miterlimit="10" x1="628.5" y1="162.6" x2="622.3" y2="162.6"/>
	<line fill="none" stroke="#A2A1A2" stroke-width="0.8815" stroke-miterlimit="10" x1="628.5" y1="168.9" x2="622.3" y2="168.9"/>
	<line fill="none" stroke="#A2A1A2" stroke-width="0.8815" stroke-miterlimit="10" x1="628.5" y1="175.1" x2="622.3" y2="175.1"/>
	<line fill="none" stroke="#A2A1A2" stroke-width="0.8815" stroke-miterlimit="10" x1="628.5" y1="181.4" x2="622.3" y2="181.4"/>
	<line fill="none" stroke="#A2A1A2" stroke-width="0.8815" stroke-miterlimit="10" x1="628.5" y1="187.7" x2="622.3" y2="187.7"/>
	<line fill="none" stroke="#A2A1A2" stroke-width="0.8815" stroke-miterlimit="10" x1="628.5" y1="194" x2="622.3" y2="194"/>
	<line fill="none" stroke="#A2A1A2" stroke-width="0.8815" stroke-miterlimit="10" x1="628.5" y1="200.2" x2="622.3" y2="200.2"/>
	<line fill="none" stroke="#A2A1A2" stroke-width="0.8815" stroke-miterlimit="10" x1="628.5" y1="206.5" x2="622.3" y2="206.5"/>
	<line fill="none" stroke="#A2A1A2" stroke-width="0.8815" stroke-miterlimit="10" x1="628.5" y1="212.8" x2="622.3" y2="212.8"/>
	<line fill="none" stroke="#A2A1A2" stroke-width="0.8815" stroke-miterlimit="10" x1="628.5" y1="219" x2="622.3" y2="219"/>
	<line fill="none" stroke="#A2A1A2" stroke-width="0.8815" stroke-miterlimit="10" x1="628.5" y1="225.3" x2="622.3" y2="225.3"/>
	<line fill="none" stroke="#A2A1A2" stroke-width="0.8815" stroke-miterlimit="10" x1="628.5" y1="231.6" x2="622.3" y2="231.6"/>
	<line fill="none" stroke="#A2A1A2" stroke-width="0.8815" stroke-miterlimit="10" x1="628.5" y1="237.8" x2="622.3" y2="237.8"/>
	<line fill="none" stroke="#A2A1A2" stroke-width="0.8815" stroke-miterlimit="10" x1="628.5" y1="244.1" x2="622.3" y2="244.1"/>
	<line fill="none" stroke="#A2A1A2" stroke-width="0.8815" stroke-miterlimit="10" x1="628.5" y1="250.4" x2="622.3" y2="250.4"/>
	<line fill="none" stroke="#A2A1A2" stroke-width="0.8815" stroke-miterlimit="10" x1="628.5" y1="256.6" x2="622.3" y2="256.6"/>
	<line fill="none" stroke="#A2A1A2" stroke-width="0.8815" stroke-miterlimit="10" x1="628.5" y1="262.9" x2="622.3" y2="262.9"/>
	<line fill="none" stroke="#A2A1A2" stroke-width="0.8815" stroke-miterlimit="10" x1="628.5" y1="269.2" x2="622.3" y2="269.2"/>
</g>
<g>
	<line fill="none" stroke="#A2A1A2" stroke-width="0.8815" stroke-miterlimit="10" x1="19.6" y1="18.4" x2="13.4" y2="18.4"/>
	<line fill="none" stroke="#A2A1A2" stroke-width="0.8815" stroke-miterlimit="10" x1="19.6" y1="24.7" x2="13.4" y2="24.7"/>
	<line fill="none" stroke="#A2A1A2" stroke-width="0.8815" stroke-miterlimit="10" x1="19.6" y1="31" x2="13.4" y2="31"/>
	<line fill="none" stroke="#A2A1A2" stroke-width="0.8815" stroke-miterlimit="10" x1="19.6" y1="37.2" x2="13.4" y2="37.2"/>
	<line fill="none" stroke="#A2A1A2" stroke-width="0.8815" stroke-miterlimit="10" x1="19.6" y1="43.5" x2="13.4" y2="43.5"/>
	<line fill="none" stroke="#A2A1A2" stroke-width="0.8815" stroke-miterlimit="10" x1="19.6" y1="49.8" x2="13.4" y2="49.8"/>
	<line fill="none" stroke="#A2A1A2" stroke-width="0.8815" stroke-miterlimit="10" x1="19.6" y1="56" x2="13.4" y2="56"/>
	<line fill="none" stroke="#A2A1A2" stroke-width="0.8815" stroke-miterlimit="10" x1="19.6" y1="62.3" x2="13.4" y2="62.3"/>
	<line fill="none" stroke="#A2A1A2" stroke-width="0.8815" stroke-miterlimit="10" x1="19.6" y1="68.6" x2="13.4" y2="68.6"/>
	<line fill="none" stroke="#A2A1A2" stroke-width="0.8815" stroke-miterlimit="10" x1="19.6" y1="74.8" x2="13.4" y2="74.8"/>
	<line fill="none" stroke="#A2A1A2" stroke-width="0.8815" stroke-miterlimit="10" x1="19.6" y1="81.1" x2="13.4" y2="81.1"/>
	<line fill="none" stroke="#A2A1A2" stroke-width="0.8815" stroke-miterlimit="10" x1="19.6" y1="87.4" x2="13.4" y2="87.4"/>
	<line fill="none" stroke="#A2A1A2" stroke-width="0.8815" stroke-miterlimit="10" x1="19.6" y1="93.6" x2="13.4" y2="93.6"/>
	<line fill="none" stroke="#A2A1A2" stroke-width="0.8815" stroke-miterlimit="10" x1="19.6" y1="99.9" x2="13.4" y2="99.9"/>
	<line fill="none" stroke="#A2A1A2" stroke-width="0.8815" stroke-miterlimit="10" x1="19.6" y1="106.2" x2="13.4" y2="106.2"/>
	<line fill="none" stroke="#A2A1A2" stroke-width="0.8815" stroke-miterlimit="10" x1="19.6" y1="112.5" x2="13.4" y2="112.5"/>
	<line fill="none" stroke="#A2A1A2" stroke-width="0.8815" stroke-miterlimit="10" x1="19.6" y1="118.7" x2="13.4" y2="118.7"/>
	<line fill="none" stroke="#A2A1A2" stroke-width="0.8815" stroke-miterlimit="10" x1="19.6" y1="125" x2="13.4" y2="125"/>
	<line fill="none" stroke="#A2A1A2" stroke-width="0.8815" stroke-miterlimit="10" x1="19.6" y1="131.3" x2="13.4" y2="131.3"/>
	<line fill="none" stroke="#A2A1A2" stroke-width="0.8815" stroke-miterlimit="10" x1="19.6" y1="137.5" x2="13.4" y2="137.5"/>
	<line fill="none" stroke="#A2A1A2" stroke-width="0.8815" stroke-miterlimit="10" x1="19.6" y1="143.8" x2="13.4" y2="143.8"/>
	<line fill="none" stroke="#A2A1A2" stroke-width="0.8815" stroke-miterlimit="10" x1="19.6" y1="150.1" x2="13.4" y2="150.1"/>
	<line fill="none" stroke="#A2A1A2" stroke-width="0.8815" stroke-miterlimit="10" x1="19.6" y1="156.3" x2="13.4" y2="156.3"/>
	<line fill="none" stroke="#A2A1A2" stroke-width="0.8815" stroke-miterlimit="10" x1="19.6" y1="162.6" x2="13.4" y2="162.6"/>
	<line fill="none" stroke="#A2A1A2" stroke-width="0.8815" stroke-miterlimit="10" x1="19.6" y1="168.9" x2="13.4" y2="168.9"/>
	<line fill="none" stroke="#A2A1A2" stroke-width="0.8815" stroke-miterlimit="10" x1="19.6" y1="175.1" x2="13.4" y2="175.1"/>
	<line fill="none" stroke="#A2A1A2" stroke-width="0.8815" stroke-miterlimit="10" x1="19.6" y1="181.4" x2="13.4" y2="181.4"/>
	<line fill="none" stroke="#A2A1A2" stroke-width="0.8815" stroke-miterlimit="10" x1="19.6" y1="187.7" x2="13.4" y2="187.7"/>
	<line fill="none" stroke="#A2A1A2" stroke-width="0.8815" stroke-miterlimit="10" x1="19.6" y1="194" x2="13.4" y2="194"/>
	<line fill="none" stroke="#A2A1A2" stroke-width="0.8815" stroke-miterlimit="10" x1="19.6" y1="200.2" x2="13.4" y2="200.2"/>
	<line fill="none" stroke="#A2A1A2" stroke-width="0.8815" stroke-miterlimit="10" x1="19.6" y1="206.5" x2="13.4" y2="206.5"/>
	<line fill="none" stroke="#A2A1A2" stroke-width="0.8815" stroke-miterlimit="10" x1="19.6" y1="212.8" x2="13.4" y2="212.8"/>
	<line fill="none" stroke="#A2A1A2" stroke-width="0.8815" stroke-miterlimit="10" x1="19.6" y1="219" x2="13.4" y2="219"/>
	<line fill="none" stroke="#A2A1A2" stroke-width="0.8815" stroke-miterlimit="10" x1="19.6" y1="225.3" x2="13.4" y2="225.3"/>
	<line fill="none" stroke="#A2A1A2" stroke-width="0.8815" stroke-miterlimit="10" x1="19.6" y1="231.6" x2="13.4" y2="231.6"/>
	<line fill="none" stroke="#A2A1A2" stroke-width="0.8815" stroke-miterlimit="10" x1="19.6" y1="237.8" x2="13.4" y2="237.8"/>
	<line fill="none" stroke="#A2A1A2" stroke-width="0.8815" stroke-miterlimit="10" x1="19.6" y1="244.1" x2="13.4" y2="244.1"/>
	<line fill="none" stroke="#A2A1A2" stroke-width="0.8815" stroke-miterlimit="10" x1="19.6" y1="250.4" x2="13.4" y2="250.4"/>
	<line fill="none" stroke="#A2A1A2" stroke-width="0.8815" stroke-miterlimit="10" x1="19.6" y1="256.6" x2="13.4" y2="256.6"/>
	<line fill="none" stroke="#A2A1A2" stroke-width="0.8815" stroke-miterlimit="10" x1="19.6" y1="262.9" x2="13.4" y2="262.9"/>
	<line fill="none" stroke="#A2A1A2" stroke-width="0.8815" stroke-miterlimit="10" x1="19.6" y1="269.2" x2="13.4" y2="269.2"/>
</g>
<rect x="19.7" y="18.3" fill="none" stroke="#A2A1A2" stroke-width="0.8815" stroke-miterlimit="10" width="602.6" height="250.8"/>
<rect x="13.4" y="12.2" fill="none" stroke="#A2A1A2" stroke-width="0.8861" stroke-miterlimit="10" width="615.1" height="263.1"/>
</svg>
