<?xml version="1.0" encoding="utf-8"?>
<!-- Generator: Adobe Illustrator 18.0.0, SVG Export Plug-In . SVG Version: 6.00 Build 0)  -->
<!DOCTYPE svg PUBLIC "-//W3C//DTD SVG 1.1//EN" "http://www.w3.org/Graphics/SVG/1.1/DTD/svg11.dtd">
<svg version="1.1" id="Layer_1" xmlns="http://www.w3.org/2000/svg" xmlns:xlink="http://www.w3.org/1999/xlink" x="0px" y="0px"
	 viewBox="0 0 60 10" enable-background="new 0 0 60 10" xml:space="preserve">
<g>
	<line fill="none" stroke="#AA8135" stroke-miterlimit="10" stroke-dasharray="14,7" x1="58" y1="4.5" x2="1" y2="4.5"/>
</g>
</svg>
