<?xml version="1.0" encoding="utf-8"?>
<!-- Generator: Adobe Illustrator 18.0.0, SVG Export Plug-In . SVG Version: 6.00 Build 0)  -->
<!DOCTYPE svg PUBLIC "-//W3C//DTD SVG 1.1//EN" "http://www.w3.org/Graphics/SVG/1.1/DTD/svg11.dtd">
<svg version="1.1" id="Layer_1" xmlns="http://www.w3.org/2000/svg" xmlns:xlink="http://www.w3.org/1999/xlink" x="0px" y="0px"
	 viewBox="0 0 384 288" enable-background="new 0 0 384 288" xml:space="preserve">
<path fill="none" stroke="#FFFFFF" stroke-miterlimit="10" d="M262.2,277.8c21.2,0,34.5,0,34.5,0c43,0,68.6,0,68.6,0c0-5,4-9,9-9
	c0,0,0-18.9,0-49.6V98c0-47.9,0-79.4,0-79.4c-5,0-9-4-9-9c0,0-29.9,0-79.4,0c0,0-13.4,0-33.8,0c0,0-24.8,0-57.9,0H76.8
	c-36.3,0-57.6,0-57.6,0c0,5-4,9-9,9c0,0,0,25,0,64.3c0,0,0,49.9,0,89v89.4c0,4.8,0,7.3,0,7.3c5,0,9,4,9,9c0,0,31,0,82.1,0
	c0,0,1.2,0,3.5,0H262.2z"/>
</svg>
