<?xml version="1.0" encoding="utf-8"?>
<!-- Generator: Adobe Illustrator 18.0.0, SVG Export Plug-In . SVG Version: 6.00 Build 0)  -->
<!DOCTYPE svg PUBLIC "-//W3C//DTD SVG 1.1//EN" "http://www.w3.org/Graphics/SVG/1.1/DTD/svg11.dtd">
<svg version="1.1" id="Layer_1" xmlns="http://www.w3.org/2000/svg" xmlns:xlink="http://www.w3.org/1999/xlink" x="0px" y="0px"
	 viewBox="0 0 640 288" enable-background="new 0 0 640 288" xml:space="preserve">
<path fill="none" stroke="#FFFFFF" stroke-miterlimit="10" d="M628.5,224.2c0,25.1,0,39.8,0,39.8c-6.2,0-11.3,5-11.3,11.2
	c0,0-32,0-85.8,0H127.3c-63.8,0-102.6,0-102.6,0c0-6.2-5-11.2-11.2-11.2c0,0,0-3.2,0-9.1c0,0,0-50.6,0-83.7v-43
	c0-14.7,0-24.3,0-24.3c0-49.2,0-80.4,0-80.4c6.2,0,11.2-5,11.3-11.3c0,0,67.6,0,171.3,0h279.7c25.6,0,42.3,0,42.3,0
	c61.9,0,99.3,0,99.3,0c0,6.2,5,11.3,11.3,11.3c0,0,0,39.4,0,99.2c0,0,0,1.3,0,3.6V224.2z"/>
</svg>
