<?xml version="1.0" encoding="utf-8"?>
<!-- Generator: Adobe Illustrator 18.0.0, SVG Export Plug-In . SVG Version: 6.00 Build 0)  -->
<!DOCTYPE svg PUBLIC "-//W3C//DTD SVG 1.1//EN" "http://www.w3.org/Graphics/SVG/1.1/DTD/svg11.dtd">
<svg version="1.1" id="Layer_1" xmlns="http://www.w3.org/2000/svg" xmlns:xlink="http://www.w3.org/1999/xlink" x="0px" y="0px"
	 viewBox="0 0 108 142" enable-background="new 0 0 108 142" xml:space="preserve">
<polygon fill="#3D4742" points="107.7,108.6 54.1,141.6 -0.3,108.6 -0.3,-0.5 107.7,-0.5 "/>
<polyline fill="none" stroke="#A4854C" stroke-miterlimit="10" points="5.7,-0.5 5.7,1.6 5.7,7.4 5.7,104.2 54,133.5 101.7,104.2 
	101.7,7.4 101.7,1.6 101.7,-0.5 "/>
</svg>
