<?xml version="1.0" encoding="utf-8"?>
<!-- Generator: Adobe Illustrator 18.0.0, SVG Export Plug-In . SVG Version: 6.00 Build 0)  -->
<!DOCTYPE svg PUBLIC "-//W3C//DTD SVG 1.1//EN" "http://www.w3.org/Graphics/SVG/1.1/DTD/svg11.dtd">
<svg version="1.1" id="Layer_1" xmlns="http://www.w3.org/2000/svg" xmlns:xlink="http://www.w3.org/1999/xlink" x="0px" y="0px"
	 viewBox="0 0 20 20" enable-background="new 0 0 20 20" xml:space="preserve">
<g>
	<line fill="none" stroke="#FFFFFF" stroke-width="1.44" stroke-miterlimit="10" x1="19.6" y1="0.4" x2="0.4" y2="19.6"/>
	<line fill="none" stroke="#FFFFFF" stroke-width="1.44" stroke-miterlimit="10" x1="0.4" y1="0.4" x2="19.6" y2="19.6"/>
</g>
</svg>
